{
  "$schema": "https://gitlab.com/gitlab-org/security-products/security-report-schemas/-/blob/master/dist/sast-report-format.json",
  "scan": {
    "analyzer": {
      "id": "semgrep",
      "name": "Semgrep",
      "url": "https://semgrep.dev",
      "vendor": {
        "name": "Semgrep"
      },
      "version": "1.71.0"
    },
    "end_time": "2024-05-04T12:19:51",
    "scanner": {
      "id": "semgrep",
      "name": "Semgrep",
      "url": "https://semgrep.dev",
      "vendor": {
        "name": "Semgrep"
      },
      "version": "1.71.0"
    },
    "start_time": "2024-05-04T12:19:43",
    "status": "success",
    "type": "sast",
    "version": "1.71.0"
  },
  "version": "15.0.4",
  "vulnerabilities": []
}